3.20845,230 (bal_hatso_ajto),0,0,5,00,00,00,00,00,0,,
3.22372,405 (balelso_ajto),0,0,6,00,00,00,00,00,00,0,
3.23897,420 (jobbelso_ajto),0,0,5,00,00,00,00,00,0,,
3.23997,160,0,0,4,01,40,7D,28,0,,,
3.29166,621,0,0,8,01,08,00,00,00,00,00,00
3.33059,622,0,0,8,01,0C,60,00,00,00,00,00
3.33163,170,0,0,1,00,0,,,,,,
3.33163,23A (light_switch),0,0,3,00,00,00,0,,,,
3.33163,360 (fek),0,0,3,00,00,00,0,,,,
3.33163,230 (bal_hatso_ajto),0,0,5,00,00,00,00,00,0,,
3.33163,175 (wheel_joys),0,0,8,00,00,00,00,66,00,00,00
3.33163,340,0,0,2,00,00,0,,,,,
3.33163,370,0,0,3,00,00,00,0,,,,
3.33163,350 (front_fog),0,0,2,02,00,0,,,,,
3.35533,160,0,0,4,01,40,7D,28,0,,,
3.35636,426,0,0,1,11,0,,,,,,
3.36827,135,0,0,4,BC,85,1B,F0,0,,,
3.38525,260 (index),0,0,3,1F,32,4C,0,,,,
3.40305,23A (light_switch),0,0,3,00,00,00,0,,,,
3.42574,360 (fek),0,0,3,00,00,00,0,,,,
3.42574,170,0,0,1,00,0,,,,,,
3.42574,415 (right_window),0,0,5,40,00,00,00,00,0,,
3.42574,629,0,0,8,01,00,10,00,00,00,00,00
3.42574,230 (bal_hatso_ajto),0,0,5,00,00,00,00,00,0,,
3.42574,370,0,0,3,00,00,00,0,,,,
3.44291,175 (wheel_joys),0,0,8,00,00,00,00,66,00,00,00
3.47710,621,0,0,8,00,08,00,00,00,00,00,00
3.50404,160,0,0,4,01,00,7D,28,0,,,
3.50404,621,0,0,8,00,08,00,00,00,00,00,00
3.52236,360 (fek),0,0,3,00,00,00,0,,,,
3.53831,260 (index),0,0,3,00,40,80,0,,,,
3.57713,621,0,0,8,00,08,00,00,00,00,00,00
3.69062,621,0,0,8,00,08,00,00,00,00,00,00
3.77787,230 (bal_hatso_ajto),0,0,5,05,00,00,00,00,0,,
3.80621,621,0,0,8,00,08,00,00,00,00,00,00
3.84206,426,0,0,1,01,0,,,,,,
3.87466,420 (jobbelso_ajto),0,0,5,00,00,10,00,00,0,,
3.87466,405 (balelso_ajto),0,0,6,00,00,40,00,00,00,0,
3.90740,621,0,0,8,00,08,00,00,00,00,00,00
3.90740,135,0,0,4,3C,85,1B,F0,0,,,
3.98098,621,0,0,8,00,08,00,00,00,00,00,00
4.07813,621,0,0,8,00,08,00,00,00,00,00,00
4.17785,621,0,0,8,00,08,00,00,00,00,00,00
4.23557,230 (bal_hatso_ajto),0,0,5,05,00,00,00,00,0,,
4.23557,405 (balelso_ajto),0,0,6,00,00,40,00,00,00,0,
4.23557,420 (jobbelso_ajto),0,0,5,00,00,10,00,00,0,,
4.27757,621,0,0,8,00,08,00,00,00,00,00,00
4.33523,235 (brightness),0,0,2,04,00,0,,,,,
4.33523,23A (light_switch),0,0,3,00,00,00,0,,,,
4.33523,305,0,0,3,00,81,74,0,,,,
4.33523,426,0,0,1,01,0,,,,,,
4.37782,621,0,0,8,00,08,00,00,00,00,00,00
4.46200,235 (brightness),0,0,2,00,00,0,,,,,
4.51139,621,0,0,8,00,08,00,00,00,00,00,00
4.57646,621,0,0,8,00,08,00,00,00,00,00,00
4.67796,621,0,0,8,00,08,00,00,00,00,00,00
4.79011,621,0,0,8,00,08,00,00,00,00,00,00
4.84492,370,0,0,3,00,00,00,0,,,,
4.84492,170,0,0,1,00,0,,,,,,
4.84492,340,0,0,2,00,00,0,,,,,
4.84492,350 (front_fog),0,0,2,02,00,0,,,,,
4.87723,621,0,0,8,00,08,00,00,00,00,00,00
4.92659,360 (fek),0,0,3,00,00,00,0,,,,
4.97722,621,0,0,8,00,08,00,00,00,00,00,00
5.08906,621,0,0,8,00,08,00,00,00,00,00,00
5.17728,621,0,0,8,00,08,00,00,00,00,00,00
5.29011,621,0,0,8,00,08,00,00,00,00,00,00
5.37690,621,0,0,8,00,08,00,00,00,00,00,00
5.47693,621,0,0,8,00,08,00,00,00,00,00,00
5.58982,621,0,0,8,00,08,00,00,00,00,00,00
5.69019,621,0,0,8,00,08,00,00,00,00,00,00
5.74461,230 (bal_hatso_ajto),0,0,5,05,00,00,00,00,0,,
5.74461,405 (balelso_ajto),0,0,6,00,00,40,00,00,00,0,
5.74461,420 (jobbelso_ajto),0,0,5,00,00,10,00,00,0,,
5.77593,621,0,0,8,00,08,00,00,00,00,00,00
5.82055,235 (brightness),0,0,2,00,00,0,,,,,
5.82055,23A (light_switch),0,0,3,00,00,00,0,,,,
5.82055,305,0,0,3,00,81,74,0,,,,
5.82055,426,0,0,1,01,0,,,,,,
5.87780,621,0,0,8,00,08,00,00,00,00,00,00
5.97833,621,0,0,8,00,08,00,00,00,00,00,00
6.07771,621,0,0,8,00,08,00,00,00,00,00,00
6.18957,621,0,0,8,00,08,00,00,00,00,00,00
6.24478,622,0,0,8,00,08,00,00,00,00,00,00
6.27853,621,0,0,8,00,08,00,00,00,00,00,00
6.32064,370,0,0,3,00,00,00,0,,,,
6.34100,170,0,0,1,00,0,,,,,,
6.34100,340,0,0,2,00,00,0,,,,,
6.37429,350 (front_fog),0,0,2,02,00,0,,,,,
6.40957,621,0,0,8,00,08,00,00,00,00,00,00
6.42519,629,0,0,8,00,08,00,00,00,00,00,00
6.44241,360 (fek),0,0,3,00,00,00,0,,,,
6.48988,621,0,0,8,00,08,00,00,00,00,00,00
6.58948,621,0,0,8,00,08,00,00,00,00,00,00
6.67533,621,0,0,8,00,08,00,00,00,00,00,00
6.77850,621,0,0,8,00,08,00,00,00,00,00,00
6.88154,621,0,0,8,00,08,00,00,00,00,00,00
6.97959,621,0,0,8,00,08,00,00,00,00,00,00
7.08968,621,0,0,8,00,08,00,00,00,00,00,00
7.18287,621,0,0,8,00,08,00,00,00,00,00,00
7.26429,230 (bal_hatso_ajto),0,0,5,05,00,00,00,00,0,,
7.26429,405 (balelso_ajto),0,0,6,00,00,40,00,00,00,0,
7.26532,420 (jobbelso_ajto),0,0,5,00,00,10,00,00,0,,
7.29175,621,0,0,8,00,08,00,00,00,00,00,00
7.32319,235 (brightness),0,0,2,00,00,0,,,,,
7.32319,23A (light_switch),0,0,3,00,00,00,0,,,,
7.32423,305,0,0,3,00,81,74,0,,,,
7.32423,426,0,0,1,01,0,,,,,,
7.38978,621,0,0,8,00,08,00,00,00,00,00,00
7.49083,621,0,0,8,00,08,00,00,00,00,00,00
7.58124,621,0,0,8,00,08,00,00,00,00,00,00
7.67536,621,0,0,8,00,08,00,00,00,00,00,00
7.79079,621,0,0,8,00,08,00,00,00,00,00,00
7.83162,370,0,0,3,00,00,00,0,,,,
7.83162,170,0,0,1,00,0,,,,,,
7.83162,340,0,0,2,00,00,0,,,,,
7.88129,350 (front_fog),0,0,2,02,00,0,,,,,
7.89041,621,0,0,8,00,08,00,00,00,00,00,00
7.93048,360 (fek),0,0,3,00,00,00,0,,,,
7.97558,621,0,0,8,00,08,00,00,00,00,00,00
8.09084,621,0,0,8,00,08,00,00,00,00,00,00
8.17509,621,0,0,8,00,08,00,00,00,00,00,00
8.28960,621,0,0,8,00,08,00,00,00,00,00,00
8.39010,621,0,0,8,00,08,00,00,00,00,00,00
8.49077,621,0,0,8,00,08,00,00,00,00,00,00
8.58975,621,0,0,8,00,08,00,00,00,00,00,00
8.69083,621,0,0,8,00,08,00,00,00,00,00,00
8.75442,230 (bal_hatso_ajto),0,0,5,05,00,00,00,00,0,,
8.75442,405 (balelso_ajto),0,0,6,00,00,40,00,00,00,0,
8.75442,420 (jobbelso_ajto),0,0,5,00,00,10,00,00,0,,
8.78947,621,0,0,8,00,08,00,00,00,00,00,00
8.81023,235 (brightness),0,0,2,00,00,0,,,,,
8.81023,23A (light_switch),0,0,3,00,00,00,0,,,,
8.81023,305,0,0,3,00,81,74,0,,,,
8.81023,426,0,0,1,01,0,,,,,,
8.87616,621,0,0,8,00,08,00,00,00,00,00,00
8.98160,621,0,0,8,00,08,00,00,00,00,00,00
9.09037,621,0,0,8,00,08,00,00,00,00,00,00
9.17583,621,0,0,8,00,08,00,00,00,00,00,00
9.27511,621,0,0,8,00,08,00,00,00,00,00,00
9.33067,370,0,0,3,00,00,00,0,,,,
9.33067,170,0,0,1,00,0,,,,,,
9.33067,340,0,0,2,00,00,0,,,,,
9.38969,350 (front_fog),0,0,2,02,00,0,,,,,
9.42454,621,0,0,8,00,08,00,00,00,00,00,00
9.44085,360 (fek),0,0,3,00,00,00,0,,,,
9.48976,621,0,0,8,00,08,00,00,00,00,00,00
9.59054,621,0,0,8,00,08,00,00,00,00,00,00
9.67729,621,0,0,8,00,08,00,00,00,00,00,00
9.77781,621,0,0,8,00,08,00,00,00,00,00,00
9.89024,621,0,0,8,00,08,00,00,00,00,00,00
9.99001,621,0,0,8,00,08,00,00,00,00,00,00
10.0801,621,0,0,8,00,08,00,00,00,00,00,00
10.1763,621,0,0,8,00,08,00,00,00,00,00,00
10.2350,230 (bal_hatso_ajto),0,0,5,05,00,00,00,00,0,,
10.2350,405 (balelso_ajto),0,0,6,00,00,40,00,00,00,0,
10.2350,420 (jobbelso_ajto),0,0,5,00,00,10,00,00,0,,
10.2744,621,0,0,8,00,08,00,00,00,00,00,00
10.3236,235 (brightness),0,0,2,00,00,0,,,,,
10.3236,23A (light_switch),0,0,3,00,00,00,0,,,,
10.3236,305,0,0,3,00,81,74,0,,,,
10.3236,426,0,0,1,01,0,,,,,,
10.3896,621,0,0,8,00,08,00,00,00,00,00,00
10.4901,621,0,0,8,00,08,00,00,00,00,00,00
10.5756,621,0,0,8,00,08,00,00,00,00,00,00
10.6774,621,0,0,8,00,08,00,00,00,00,00,00
10.7809,621,0,0,8,00,08,00,00,00,00,00,00
10.8652,370,0,0,3,00,00,00,0,,,,
10.8652,170,0,0,1,00,0,,,,,,
10.8662,340,0,0,2,00,00,0,,,,,
10.8662,350 (front_fog),0,0,2,02,00,0,,,,,
10.8928,621,0,0,8,00,08,00,00,00,00,00,00
10.8928,305,0,0,3,00,81,72,0,,,,
10.9292,360 (fek),0,0,3,00,00,00,0,,,,
10.9905,621,0,0,8,00,08,00,00,00,00,00,00
11.0821,621,0,0,8,00,08,00,00,00,00,00,00
11.1777,621,0,0,8,00,08,00,00,00,00,00,00
11.2664,628,0,0,8,00,08,00,00,00,00,00,00
11.2926,621,0,0,8,00,08,00,00,00,00,00,00
11.3901,621,0,0,8,00,08,00,00,00,00,00,00
11.4765,621,0,0,8,00,08,00,00,00,00,00,00
11.5909,621,0,0,8,00,08,00,00,00,00,00,00
11.6897,621,0,0,8,00,08,00,00,00,00,00,00
11.7433,230 (bal_hatso_ajto),0,0,5,05,00,00,00,00,0,,
11.7433,405 (balelso_ajto),0,0,6,00,00,40,00,00,00,0,
11.7433,420 (jobbelso_ajto),0,0,5,00,00,10,00,00,0,,
11.7756,621,0,0,8,00,08,00,00,00,00,00,00
11.8245,235 (brightness),0,0,2,00,00,0,,,,,
11.8245,23A (light_switch),0,0,3,00,00,00,0,,,,
11.8245,305,0,0,3,00,81,72,0,,,,
11.8896,621,0,0,8,00,08,00,00,00,00,00,00
11.9896,621,0,0,8,00,08,00,00,00,00,00,00
12.0898,621,0,0,8,00,08,00,00,00,00,00,00
12.1896,621,0,0,8,00,08,00,00,00,00,00,00
12.2899,621,0,0,8,00,08,00,00,00,00,00,00
12.3075,370,0,0,3,00,00,00,0,,,,
12.3899,170,0,0,1,00,0,,,,,,
12.4404,621,0,0,8,00,08,00,00,00,00,00,00
12.4404,360 (fek),0,0,3,00,00,00,0,,,,
12.4751,621,0,0,8,00,08,00,00,00,00,00,00
12.5761,621,0,0,8,00,08,00,00,00,00,00,00
12.6801,621,0,0,8,00,08,00,00,00,00,00,00
12.7838,621,0,0,8,00,08,00,00,00,00,00,00
12.8900,621,0,0,8,00,08,00,00,00,00,00,00
12.9749,621,0,0,8,00,08,00,00,00,00,00,00
13.0899,621,0,0,8,00,08,00,00,00,00,00,00
13.1900,621,0,0,8,00,08,00,00,00,00,00,00
13.2454,420 (jobbelso_ajto),0,0,5,00,00,10,00,00,0,,
13.2454,230 (bal_hatso_ajto),0,0,5,05,00,00,00,00,0,,
13.2454,405 (balelso_ajto),0,0,6,00,00,40,00,00,00,0,
13.2777,621,0,0,8,00,08,00,00,00,00,00,00
13.3226,235 (brightness),0,0,2,00,00,0,,,,,
13.3226,23A (light_switch),0,0,3,00,00,00,0,,,,
13.3226,305,0,0,3,00,81,72,0,,,,
13.3904,621,0,0,8,00,08,00,00,00,00,00,00
13.4899,621,0,0,8,00,08,00,00,00,00,00,00
13.5893,621,0,0,8,00,08,00,00,00,00,00,00
13.6773,621,0,0,8,00,08,00,00,00,00,00,00
13.7792,621,0,0,8,00,08,00,00,00,00,00,00
13.8439,370,0,0,3,00,00,00,0,,,,
13.8899,170,0,0,1,00,0,,,,,,
13.8899,621,0,0,8,00,08,00,00,00,00,00,00
13.9233,360 (fek),0,0,3,00,00,00,0,,,,
13.9901,621,0,0,8,00,08,00,00,00,00,00,00
14.0807,621,0,0,8,00,08,00,00,00,00,00,00
14.1766,621,0,0,8,00,08,00,00,00,00,00,00
14.2901,621,0,0,8,00,08,00,00,00,00,00,00
14.3785,621,0,0,8,00,08,00,00,00,00,00,00
14.4896,621,0,0,8,00,08,00,00,00,00,00,00
14.5899,621,0,0,8,00,08,00,00,00,00,00,00
14.6903,621,0,0,8,00,08,00,00,00,00,00,00
14.7374,420 (jobbelso_ajto),0,0,5,00,00,10,00,00,0,,
14.7374,230 (bal_hatso_ajto),0,0,5,05,00,00,00,00,0,,
14.7374,405 (balelso_ajto),0,0,6,00,00,40,00,00,00,0,
14.7748,621,0,0,8,00,08,00,00,00,00,00,00
14.8098,235 (brightness),0,0,2,00,00,0,,,,,
14.8098,23A (light_switch),0,0,3,00,00,00,0,,,,
14.8098,305,0,0,3,00,81,72,0,,,,
14.8795,621,0,0,8,00,08,00,00,00,00,00,00
14.9769,621,0,0,8,00,08,00,00,00,00,00,00
15.0787,621,0,0,8,00,08,00,00,00,00,00,00
15.1907,621,0,0,8,00,08,00,00,00,00,00,00
15.2896,621,0,0,8,00,08,00,00,00,00,00,00
15.3768,370,0,0,3,00,00,00,0,,,,
15.3910,170,0,0,1,00,0,,,,,,
15.3910,621,0,0,8,00,08,00,00,00,00,00,00
15.4303,360 (fek),0,0,3,00,00,00,0,,,,
15.4747,621,0,0,8,00,08,00,00,00,00,00,00
15.5773,621,0,0,8,00,08,00,00,00,00,00,00
15.6896,621,0,0,8,00,08,00,00,00,00,00,00
15.7898,621,0,0,8,00,08,00,00,00,00,00,00
15.8798,621,0,0,8,00,08,00,00,00,00,00,00
15.9759,621,0,0,8,00,08,00,00,00,00,00,00
16.0812,621,0,0,8,00,08,00,00,00,00,00,00
16.1782,621,0,0,8,00,08,00,00,00,00,00,00
16.2260,420 (jobbelso_ajto),0,0,5,00,00,10,00,00,0,,
16.2260,405 (balelso_ajto),0,0,6,00,00,40,00,00,00,0,
16.2260,230 (bal_hatso_ajto),0,0,5,05,00,00,00,00,0,,
16.2754,621,0,0,8,00,08,00,00,00,00,00,00
16.3429,235 (brightness),0,0,2,00,00,0,,,,,
16.3429,23A (light_switch),0,0,3,00,00,00,0,,,,
16.3429,305,0,0,3,00,81,72,0,,,,
16.3900,621,0,0,8,00,08,00,00,00,00,00,00
16.4825,621,0,0,8,00,08,00,00,00,00,00,00
16.5800,621,0,0,8,00,08,00,00,00,00,00,00
16.6824,621,0,0,8,00,08,00,00,00,00,00,00
16.7802,621,0,0,8,00,08,00,00,00,00,00,00
16.8847,370,0,0,3,00,00,00,0,,,,
16.9066,170,0,0,1,00,0,,,,,,
16.9066,621,0,0,8,00,08,00,00,00,00,00,00
16.9231,360 (fek),0,0,3,00,00,00,0,,,,
16.9902,621,0,0,8,00,08,00,00,00,00,00,00
17.0874,621,0,0,8,00,08,00,00,00,00,00,00
17.1754,621,0,0,8,00,08,00,00,00,00,00,00
17.2774,621,0,0,8,00,08,00,00,00,00,00,00
17.3757,621,0,0,8,00,08,00,00,00,00,00,00
17.4761,621,0,0,8,00,08,00,00,00,00,00,00
17.5910,621,0,0,8,00,08,00,00,00,00,00,00
17.6811,621,0,0,8,00,08,00,00,00,00,00,00
17.7483,420 (jobbelso_ajto),0,0,5,00,00,10,00,00,0,,
17.7483,405 (balelso_ajto),0,0,6,00,00,40,00,00,00,0,
17.7483,230 (bal_hatso_ajto),0,0,5,05,00,00,00,00,0,,
17.7898,621,0,0,8,00,08,00,00,00,00,00,00
17.8116,235 (brightness),0,0,2,00,00,0,,,,,
17.8116,23A (light_switch),0,0,3,00,00,00,0,,,,
17.8116,305,0,0,3,00,81,72,0,,,,
17.8796,621,0,0,8,00,08,00,00,00,00,00,00
17.9753,621,0,0,8,00,08,00,00,00,00,00,00
18.0911,621,0,0,8,00,08,00,00,00,00,00,00
18.1895,621,0,0,8,00,08,00,00,00,00,00,00
18.2888,621,0,0,8,00,08,00,00,00,00,00,00
18.3529,370,0,0,3,00,00,00,0,,,,
18.3896,170,0,0,1,00,0,,,,,,
18.4368,621,0,0,8,00,08,00,00,00,00,00,00
18.4368,360 (fek),0,0,3,00,00,00,0,,,,
18.4894,621,0,0,8,00,08,00,00,00,00,00,00
19.2005,420 (jobbelso_ajto),0,0,5,00,00,10,00,00,0,,
19.2700,405 (balelso_ajto),0,0,6,00,00,40,00,00,00,0,
19.2713,230 (bal_hatso_ajto),0,0,5,05,00,00,00,00,0,,
19.2979,235 (brightness),0,0,2,00,00,0,,,,,
19.3549,23A (light_switch),0,0,3,00,00,00,0,,,,
19.3549,305,0,0,3,00,81,72,0,,,,
19.8192,370,0,0,3,00,00,00,0,,,,
19.9280,170,0,0,1,00,0,,,,,,
19.9647,360 (fek),0,0,3,00,00,00,0,,,,
20.7245,420 (jobbelso_ajto),0,0,5,00,00,10,00,00,0,,
20.7245,405 (balelso_ajto),0,0,6,00,00,40,00,00,00,0,
20.7245,230 (bal_hatso_ajto),0,0,5,05,00,00,00,00,0,,
20.8038,235 (brightness),0,0,2,00,00,0,,,,,
20.8627,23A (light_switch),0,0,3,00,00,00,0,,,,
20.8627,305,0,0,3,00,81,72,0,,,,
21.3196,370,0,0,3,00,00,00,0,,,,
21.4290,170,0,0,1,00,0,,,,,,
21.4301,360 (fek),0,0,3,00,00,00,0,,,,
22.2102,420 (jobbelso_ajto),0,0,5,00,00,10,00,00,0,,
22.2269,405 (balelso_ajto),0,0,6,00,00,40,00,00,00,0,
22.2269,230 (bal_hatso_ajto),0,0,5,05,00,00,00,00,0,,
22.3024,235 (brightness),0,0,2,00,00,0,,,,,
22.3329,23A (light_switch),0,0,3,00,00,00,0,,,,
22.3329,305,0,0,3,00,81,72,0,,,,
22.8045,370,0,0,3,00,00,00,0,,,,
22.9289,170,0,0,1,00,0,,,,,,
22.9300,360 (fek),0,0,3,00,00,00,0,,,,
23.7104,420 (jobbelso_ajto),0,0,5,00,00,10,00,00,0,,
23.7741,405 (balelso_ajto),0,0,6,00,00,40,00,00,00,0,
23.7823,230 (bal_hatso_ajto),0,0,5,05,00,00,00,00,0,,
23.8087,235 (brightness),0,0,2,00,00,0,,,,,
23.8380,23A (light_switch),0,0,3,00,00,00,0,,,,
23.8380,305,0,0,3,00,81,72,0,,,,
24.3190,370,0,0,3,00,00,00,0,,,,
24.4283,170,0,0,1,00,0,,,,,,
24.4883,360 (fek),0,0,3,00,00,00,0,,,,
25.2006,420 (jobbelso_ajto),0,0,5,00,00,10,00,00,0,,
25.2623,405 (balelso_ajto),0,0,6,00,00,40,00,00,00,0,
25.2623,230 (bal_hatso_ajto),0,0,5,05,00,00,00,00,0,,
25.3054,235 (brightness),0,0,2,00,00,0,,,,,
25.3511,23A (light_switch),0,0,3,00,00,00,0,,,,
25.3511,305,0,0,3,00,81,72,0,,,,
25.8121,370,0,0,3,00,00,00,0,,,,
25.9287,170,0,0,1,00,0,,,,,,
25.9845,360 (fek),0,0,3,00,00,00,0,,,,
